…
``` r
df_scaled_13 <- df_log_13
df_scaled_13[marker_cols_13] <- scale(df_log_13[marker_cols_13])

num_cols <- sapply(df_scaled_13, is.numeric)
df_scaled_13[, num_cols] <- lapply(df_scaled_13[, num_cols], function(x) {
  x[is.na(x) | is.infinite(x)] <- 0
  x
})

df_scaled_13[marker_cols_13]
```

    # A tibble: 361 × 12
       Lin_Median CD150_Median CD48_Median CD16_32_Median CD105_Median CD71_Median
            <dbl>        <dbl>       <dbl>          <dbl>        <dbl>       <dbl>
     1     -0.972      -0.0584       0.742         1.03       -1.51          0.373
     2      1.24        0.531        0.548         1.15       -0.00399       0.657
     3     -0.794       0.885        0.392        -1.01        0.336        -1.53 
     4      0.333       1.12         1.03         -1.01        1.01         -0.171
     5      1.40        0.846        0.684        -1.01        0.239         0.580
     6     -0.972       2.38         0.937         1.11        1.21          0.645
     7      0.882       0.296        0.315        -1.01       -0.101         1.07 
     8      0.745       1.16         0.237         0.796       0.190        -1.53 
     9      0.827       1.36         0.917         1.04        2.91          0.865
    10     -0.972       1.40         0.412         0.0408      0.675         1.02 
    # ℹ 351 more rows
    # ℹ 6 more variables: cKit_Median <dbl>, GFP_Median <dbl>, Live_Median <dbl>,
    #   CD135_Median <dbl>, sca1_Median <dbl>, CD34_Median <dbl>
…
